[
  "2e3f06e4-3c42-11e7-ae4c-5d1f03271769",
  "dc69abce-6067-11e7-ae4c-9b5e0567bb3b",
  "75e60874-3c1c-11e7-ae4c-259679c45928",
  "1b2a74ac-3c1b-11e7-ae4c-4f1f2c4520d6",
  "69569ad6-606b-11e7-ae4c-cf07fc82ceee",
  "8fc14bc2-3c1c-11e7-ae4c-19e8c57fd704",
  "568929d3-3c1c-11e7-ae4c-9b1532c0c6b3",
  "d8e42fe3-3c2c-11e7-ae4c-33cdf43ca881",
  "49ff4db6-3c39-11e7-ae4c-1d8b0339cc47",
  "65c25e82-3c1b-11e7-ae4c-6756ad326468"
]
